"no ped","estado pedido",guia,transportadora,"codigo programa",errores
90233-119,entregado,779292712907,coordinadora,90233,"Estado Pedido :: El estado debe ser uno de los siguientes, ( new [Nuevo], erp_imported [Cargado al importador del ERP], erp_created [Por Despachar], pack_ready [Listo para envio], collected [Recogido], dispatch [Recogido, sin WS de rastreo], delivered [Entregado], delivery_failed [Falló entrega], cancelled [Anulado], delivery_third_reported [Pedido de Tercero Reportado], delivery_third [Pedido Tercero], registered [Registrado]). La transportadora (coordinadora) no se encuentra registrada"
90233-120,"por despachar",779292712907,coordinadora,90233,"Estado Pedido :: El estado debe ser uno de los siguientes, ( new [Nuevo], erp_imported [Cargado al importador del ERP], erp_created [Por Despachar], pack_ready [Listo para envio], collected [Recogido], dispatch [Recogido, sin WS de rastreo], delivered [Entregado], delivery_failed [Falló entrega], cancelled [Anulado], delivery_third_reported [Pedido de Tercero Reportado], delivery_third [Pedido Tercero], registered [Registrado]). La transportadora (coordinadora) no se encuentra registrada"
90233-121,recogido,779292712907,coordinadora,90233,"Estado Pedido :: El estado debe ser uno de los siguientes, ( new [Nuevo], erp_imported [Cargado al importador del ERP], erp_created [Por Despachar], pack_ready [Listo para envio], collected [Recogido], dispatch [Recogido, sin WS de rastreo], delivered [Entregado], delivery_failed [Falló entrega], cancelled [Anulado], delivery_third_reported [Pedido de Tercero Reportado], delivery_third [Pedido Tercero], registered [Registrado]). La transportadora (coordinadora) no se encuentra registrada"
